{
    "items": [
        {
            "id": 3058,
            "project_name": "Terra Classic",
            "title": "Terra Classic",
            "description": "<p><strong>Quick Summary</strong></p><p>A complex mixture of events and market dynamics cost the implosion of the $40b Terra (Classic) Network.&nbsp;</p><p><br></p><p><strong>Details of the Exploit</strong></p><p>The Terra Luna Network was focused on its two native coins $LUNC and $USTC. $USTC was the algorithmic Stablecoin that was supposed to hold the peg to 1$ and $LUNC functioned as the satellite asset that absorbed $USTC’s volatility. This was achieved through a mint and burn functionality as well as by arbitrage which the former function inherently enabled.</p><p><br></p><p>$USTC rose to prominence in rapid fashion even surpassing $DAI in market cap. The Luna Foundation Group decided to start a new Curve4pool with $FRAX, $USTC, $USDC and $USDT as assets, excluding $DAI in an attempt to starve the most used StableCoin pool used by institutions the Curve3pool on the Ethereum network.</p><p><br></p><p>The migration of $USTC from the Curve3pool is the event that started the bankrun. In early May, the Luna Foundation Guard withdrew 250 million $USTC from the Curve3pool in preparation for the Curve4pool. Simultaneously, a handful of whales withdrew sizeable amounts from the anchor protocol, a crypto savings bank. The biggest wallet withdrew 347 million $USTC in total and bridged funds to the Curve3pool in order to swap for other assets. This movement of funds created an imbalance between $USTC and other Stablecoins in the pool, resulting in devaluation of $USTC on exchanges.</p><p><br></p><p>As a result of the tokenomics of $USTC and $LUNC the firesale of $USTC resulted in uncontrollable minting of the $LUNC token and a rapid fall in valuation. Additionally, the Terra network went down due to overload in transaction as market participants were panicking and trying to answer margin calls within the Anchor protocol. Eventually massive liquidations of collateral in the Anchor protocol would be incurred by investors.</p><p><br></p><p><strong>Block Data Reference</strong></p><p>Whale Addresses:</p><p>https://etherscan.io/address/0x8d47f08ebc5554504742f547eb721a43d4947d0a</p><p>https://etherscan.io/address/0x4b5e60cb1cd6c5e67af5e6cf63229d1614bb781c</p><p>https://etherscan.io/address/0x1df8ea15bb725e110118f031e8e71b91abaa2a06</p><p>https://etherscan.io/address/0xeb5425e650b04e49e5e8b62fbf1c3f60df01f232</p><p>https://etherscan.io/address/0x41339d9825963515e5705df8d3b0ea98105ebb1c</p><p>https://etherscan.io/address/0x68963dc7c28a36fcacb0b39ac2d807b0329b9c69</p><p>https://etherscan.io/address/0x9f705ff1da72ed334f0e80f90aae5644f5cd7784</p>",
            "name_categories": "Stablecoin",
            "token_name": "LUNC, USTC",
            "proof_archive_link": "https://twitter.com/OnChainWizard/status/1524123935570382851, https://rekt.news/ru/luna-rekt/, https://mobile.twitter.com/hasufl/status/1523817151471230976",
            "technical_issue": null,
            "token_address": "0x7e43d25EaD96B1058f671F6690ea705BA2C7e5B9, 0xa47c8bf37f92abed4a126bda807a7b7498661acd",
            "token_addresses": [
                {
                    "address": "0xa47c8bf37f92abed4a126bda807a7b7498661acd",
                    "url": "https://etherscan.io/address/0xa47c8bf37f92abed4a126bda807a7b7498661acd",
                    "network": {
                        "id": 1,
                        "icon_link": "safe/files/network/involved/ethereum.svg"
                    }
                },
                {
                    "address": "0x7e43d25EaD96B1058f671F6690ea705BA2C7e5B9",
                    "url": "https://etherscan.io/address/0x7e43d25EaD96B1058f671F6690ea705BA2C7e5B9",
                    "network": {
                        "id": 1,
                        "icon_link": "safe/files/network/involved/ethereum.svg"
                    }
                }
            ],
            "logo_link": "safe/files/scamDatabase/logo/62b31ccc0d07e.jpeg",
            "date": "2022-5-8",
            "scam_updates": [],
            "proof_link": "https://www.nansen.ai/research/on-chain-forensics-demystifying-terrausd-de-peg?utm_source=twitter&utm_medium=organic&utm_campaign=Research_USTdepeg_27May22, https://www.cnet.com/personal-finance/crypto/luna-crypto-crash-how-ust-broke-and-whats-next-for-terra/, https://www.fool.com/the-ascent/cryptocurrency/articles/binance-ceo-says-luna-collapse-left-him-poor-again/#:~:text=Key%20points,and%20make%20a%20new%20plan., https://medium.com/coinmonks/whats-happening-with-the-terra-luna-seed-money-exit",
            "website_link": "https://www.terra.money/",
            "webarchive_link": null,
            "twitter_link": "https://twitter.com/terra_money",
            "telegram_link": "https://t.me/TerraNetworkLobby",
            "our_post_link": null,
            "funds_lost": 40000000000,
            "funds_returned": 0,
            "funds_by_chains": [],
            "funds_recovered": null,
            "active": 1,
            "git_hub": "https://github.com/terra-money/",
            "git_hub_contract_link": null,
            "discord": "https://twitter.com/terra_money",
            "bug_bounty_program_link": null,
            "bug_bounty_program_company": null,
            "audit_code_conf": 0,
            "is_verified_source_code": 0,
            "is_public_team": 1,
            "scam_type": {
                "id": 19,
                "type": "Other"
            },
            "network": {},
            "scamNetworks": [
                {
                    "networks_id": 1003,
                    "scam_database_id": 3058,
                    "networks": {
                        "id": 1003,
                        "name": "Terra Classic",
                        "icon_link": "safe/files/network/terra-classic.png"
                    }
                }
            ],
            "auditedBy": [
                {
                    "audit_link": "safe/files/audit/pdf/CertiK_Audit_for_Terra_v18.pdf",
                    "date": "2020-09-03T00:00:00.000Z",
                    "partner": {
                        "id": 8,
                        "name": "Certik",
                        "logo_link": "safe/files/partner/logo/609520cbb1bba.png"
                    }
                }
            ]
        },
        {
            "id": 2762,
            "project_name": "Africrypt",
            "title": "Africrypt",
            "description": "<p><strong>Quick Summary</strong></p><p>Ameer and Raees Cajee, the exchange's founders, were reported missing in June 2021 after alleging that almost $3.6 billion invested in the protocol was stolen in a \"hack\".</p><p><br></p><p><br></p><p><strong>Details of the Exploit</strong></p><p>Africrypt claimed to connect banks, payment providers and digital asset providers for seamless global money transfers.</p><p><br></p><p>In April 2021, the Africrypt case gained traction. At the time, one of the protocol's founders contacted investors to notify them that the protocol had been compromised. The creator asked that investors refrain from contacting attorneys or law authorities since doing so would \"slow the recovery process.\"</p><p><br></p><p>However, Africrypt staff lost access to the exchange's back-end systems seven days before the claimed attack, making this report suspect. After receiving notice of the \"hack\" and its odd request not to contact attorneys or law enforcement, several investors hired a law firm Hanekom Attorneys. The investigation discovered that most of the bitcoin invested with the exchange had been withdrawn and moved through tumblers and mixers to make it harder to track.&nbsp;</p><p><br></p><p><br></p><p>The founders of Africrypt are still at large and have not been found as the time of this writing.</p>",
            "name_categories": "CeFi",
            "token_name": null,
            "proof_archive_link": null,
            "technical_issue": null,
            "token_address": null,
            "token_addresses": [],
            "logo_link": "safe/files/scamDatabase/logo/61e049352a11a.png",
            "date": "2021-6-23",
            "scam_updates": [],
            "proof_link": "https://finance.yahoo.com/news/africrypt-bitcoin-disappearance-174636634.html, https://www.bloomberg.com/news/articles/2021-06-23/s-african-brothers-vanish-and-so-does-3-6-billion-in-bitcoin",
            "website_link": "https://africrypt.io/",
            "webarchive_link": "https://web.archive.org/web/20200921145240/https://africrypt.io/",
            "twitter_link": null,
            "telegram_link": null,
            "our_post_link": null,
            "funds_lost": 3600000000,
            "funds_returned": 0,
            "funds_by_chains": [],
            "funds_recovered": null,
            "active": 1,
            "git_hub": null,
            "git_hub_contract_link": null,
            "discord": null,
            "bug_bounty_program_link": null,
            "bug_bounty_program_company": null,
            "audit_code_conf": null,
            "is_verified_source_code": 0,
            "is_public_team": 1,
            "scam_type": {
                "id": 10,
                "type": "Rugpull"
            },
            "network": {},
            "scamNetworks": [
                {
                    "networks_id": 1666600003,
                    "scam_database_id": 2762,
                    "networks": {
                        "id": 1666600003,
                        "name": "Centralized",
                        "icon_link": "safe/files/network/cex.png"
                    }
                }
            ],
            "auditedBy": []
        },
        {
            "id": 3264,
            "project_name": "Silk Road",
            "title": "Silk Road",
            "description": "<p><strong>Quick Summary</strong></p><p>Silk Road dark web market was exploited on 19 September 2012. 50,676 $BTC was seized from James Zhong by the U.S. Government after pleading a fraud.</p><p><br></p><p><strong>Details of the Exploit</strong></p><p>Silk Road was an anonymous market running on the darknet since 2011 until the FBI shut down the website in 2013 and arrested Ross Ulbricht. The website was exploited by James Zhong for approximately 53,500 $BTC. Then the funds were distributed between multiple addresses and part of them were swapped to $BCH.&nbsp;</p><p><br></p><p><strong>Block Data Reference</strong></p><p>Attacker addresses:</p><p>https://www.blockchain.com/btc/address/1DwCny29uDhpmd8Mz4hKudwmrSGBdUvrtL</p><p>https://www.blockchain.com/btc/address/12hkgmdqps76Bp3e466c2DTGDfg8tKRGLM</p><p>https://www.blockchain.com/btc/address/1P1ik9HkCNSs7Zmgc3LzEN72X1Egwm9Chb</p>",
            "name_categories": "Other",
            "token_name": null,
            "proof_archive_link": "https://archive.ph/FhvAa, https://archive.ph/vzE20, https://archive.ph/dSNAp, https://archive.ph/5eMqv",
            "technical_issue": null,
            "token_address": null,
            "token_addresses": [],
            "logo_link": "safe/files/scamDatabase/logo/636e4d3241822.jpg",
            "date": "2012-9-19",
            "scam_updates": [
                {
                    "date": "2021-11-09T00:00:00.000Z",
                    "description": "<p><span style='color: rgb(65, 65, 65); font-family: \"Open Sans\", sans-serif; font-size: 14px; font-style: normal; font-variant-ligatures: normal; font-variant-caps: normal; font-weight: 400; letter-spacing: normal; orphans: 2; text-align: left; text-indent: 0px; text-transform: none; white-space: normal; widows: 2; word-spacing: 0px; -webkit-text-stroke-width: 0px; background-color: rgb(255, 255, 255); text-decoration-thickness: initial; text-decoration-style: initial; text-decoration-color: initial; display: inline !important; float: none;'>On 9 November 2021, the U.S. Government seized 50,676 $BTC from the hacker, which was then valued at 3,360,000,000 $USD</span></p>"
                }
            ],
            "proof_link": "https://www.justice.gov/usao-sdny/pr/us-attorney-announces-historic-336-billion-cryptocurrency-seizure-and-conviction?utm_source=substack&utm_medium=email, https://www.justice.gov/usao-sdny/pr/us-attorney-announces-historic-336-billion-cryptocurrency-seizure-and-conviction, https://www.malwarebytes.com/blog/news/2022/11/silk-road-mega-thief-james-zhong-pleads-guilty, https://twitter.com/FractalEncrypt/status/1590004511015571456?=s",
            "website_link": null,
            "webarchive_link": null,
            "twitter_link": null,
            "telegram_link": null,
            "our_post_link": null,
            "funds_lost": 3360000000,
            "funds_returned": 3360000000,
            "funds_by_chains": [],
            "funds_recovered": null,
            "active": 1,
            "git_hub": null,
            "git_hub_contract_link": null,
            "discord": null,
            "bug_bounty_program_link": null,
            "bug_bounty_program_company": null,
            "audit_code_conf": null,
            "is_verified_source_code": 0,
            "is_public_team": 1,
            "scam_type": {
                "id": 19,
                "type": "Other"
            },
            "network": {},
            "scamNetworks": [
                {
                    "networks_id": 1666600003,
                    "scam_database_id": 3264,
                    "networks": {
                        "id": 1666600003,
                        "name": "Centralized",
                        "icon_link": "safe/files/network/cex.png"
                    }
                }
            ],
            "auditedBy": []
        },
        {
            "id": 2878,
            "project_name": "PlusToken",
            "title": "PlusToken",
            "description": "<p><strong>Quick Summary</strong></p><p>The perpetrators of one of the largest digital currency frauds have been sentenced to up to 11 years in prison. In addition, the PlusToken operators were penalized up to $900,000 by a Chinese court for their participation in the $2.25 billion Ponzi scam.<br><strong><br>Details of the Exploit</strong><br>Chen Bo established PlusToken in early 2018, posing as a South Korean wallet and exchange. It enticed investors by promising speedy and guaranteed returns. In the two years afterwards, Bo has recruited numerous others and spread the fraud to other Southeast Asian nations such as China, Cambodia, Malaysia, Vanuatu, and Vietnam.<br><br>PlusToken operators had devised a pyramid scheme that managed to lure over 2.6 million investors, authorities said. The scam was organized into at least 3,200 investor levels, with more referrals and bigger investments bumping an investor up the chain. The operators also lied to investors that they were making money through digital currency investing, according to investors.</p>",
            "name_categories": "CeFi",
            "token_name": null,
            "proof_archive_link": null,
            "technical_issue": null,
            "token_address": null,
            "token_addresses": [],
            "logo_link": "safe/files/scamDatabase/logo/62432b9d39213.png",
            "date": "2019-12-16",
            "scam_updates": [],
            "proof_link": "https://cointelegraph.com/news/vanuatu-extradicts-six-chinese-citizens-allegedly-involved-in-crypto-scheme, https://www.nasdaq.com/articles/ringleaders-of-plustoken-scam-jailed-for-up-to-11-years-2020-12-01, https://coingeek.com/plustoken-scam-top-operators-jailed-for-up-to-11-years/",
            "website_link": "https://thecryptonizer.team-plt.com/",
            "webarchive_link": "https://web.archive.org/web/20220125033211/https://www.coindesk.com/policy/2020/12/01/ringleaders-of-plustoken-scam-jailed-for-up-to-11-years/",
            "twitter_link": null,
            "telegram_link": null,
            "our_post_link": null,
            "funds_lost": 2900000000,
            "funds_returned": 0,
            "funds_by_chains": [],
            "funds_recovered": null,
            "active": 1,
            "git_hub": null,
            "git_hub_contract_link": null,
            "discord": null,
            "bug_bounty_program_link": null,
            "bug_bounty_program_company": null,
            "audit_code_conf": null,
            "is_verified_source_code": 0,
            "is_public_team": 0,
            "scam_type": {
                "id": 10,
                "type": "Rugpull"
            },
            "network": {},
            "scamNetworks": [
                {
                    "networks_id": 1666600003,
                    "scam_database_id": 2878,
                    "networks": {
                        "id": 1666600003,
                        "name": "Centralized",
                        "icon_link": "safe/files/network/cex.png"
                    }
                }
            ],
            "auditedBy": []
        }
    ],
    "currentPage": 1,
    "lastPage": 37,
    "count": 3645
}